benchmark,model,property,algorithm,success,trials,min simulations,avg simulations,median simulations,max simulations,stdev simulations,min time,avg time,max time,stdev time,min robustness,avg robustness,max robustness,stdev robustness,control points,exploration ratio,budget
NN,narmamaglev_v1,"□_[1.0, 18.0] (!(abs((Pos - Ref)) <= (0.005 + (0.03 * abs(Ref)))) ==> ◇_[0.0, 2.0] □_[0.0, 1.0] (abs((Pos - Ref)) <= (0.005 + (0.03 * abs(Ref)))))",adaptive,36,50,7,122.805555555556,106.5,260,71.0403585272663,3,41.7777777777778,87,23.4351519987891,-0.008767879351858,-0.008082053097456,-0.001437432195522,0.001650845596624,2 2 3 3 3 3,0.25,300
CC1,cars,"□_[0.0, 100.0] ((y5 - y4) <= 40.0)",adaptive,50,50,1,4.06,2,21,4.17186886130405,0,3.98,25,5.60790258729335,-251.227766016851,-81.6820653680188,-0.53243342259163,62.6331849908611,2 2 3 3 3 4,0.25,300
CC2,cars,"□_[0.0, 70.0] ◇_[0.0, 30.0] (15.0 <= (y5 - y4))",adaptive,50,50,1,4.02,2,30,5.13686158454513,0,4.76,62,10.3165411067936,-5,-4.91142414817847,-0.571207408923659,0.626325854723763,2 2 3 3 3 4,0.25,300
CC3,cars,"□_[0.0, 80.0] (□_[0.0, 20.0] ((y2 - y1) <= 20.0) || ◇_[0.0, 20.0] ((y5 - y4) <= 40.0))",adaptive,50,50,1,6.86,5,28,6.30519707892479,0,6.46,31,7.4181520334809,-183.710325571125,-70.4053714604602,-0.298221281349015,56.2841188121557,2 2 3 3 3 4,0.25,300
CC4,cars,"□_[0.0, 65.0] ◇_[0.0, 30.0] □_[0.0, 5.0] (8.0 <= (y5 - y4))",adaptive,2,50,44,52,60,60,11.3137084989848,39,59,79,28.2842712474619,-0.536166661671771,-0.395079915190845,-0.253993168709918,0.199526790344421,2 2 3 3 3 4,0.25,300
CC5,cars,"□_[0.0, 72.0] ◇_[0.0, 8.0] (□_[0.0, 5.0] (9.0 <= (y2 - y1)) ==> □_[5.0, 20.0] (9.0 <= (y5 - y4)))",adaptive,46,50,1,91.195652173913,79,294,77.9118075676216,0,87.9782608695652,285,75.7077683172267,-1.12233876932467,-0.321399099972072,-0.012513093263934,0.380518928059887,2 2 3 3 3 4,0.25,300
F16,f16,"□_[0.0, 15.0] (0.0 < altitude)",adaptive,0,50,0,0,0,0,0,0,0,0,0,0,0,0,0,2 2 3 3 3 4,0.25,300
SC,steamcondense_RNN_22,"□_[30.0, 35.0] ((87.0 <= pressure) && (pressure <= 87.5))",adaptive,0,50,0,0,0,0,0,0,0,0,0,0,0,0,0,2 2 3 3 3 4,0.25,300
