fml1:= alw (Out5[t]-Out4[t]<=40)
fml2:= alw_[0,70] ev_[0,30] (Out5[t]-Out4[t]>=15)
fml3:= alw_[0,80] ((alw_[0,20] Out2[t]-Out1[t]<=20) or (ev_[0,20] Out5[t]-Out4[t]>=40))
fml4:= alw_[0,65] ev_[0,30] alw_[0,5] (Out5[t]-Out4[t]>=8)
fml5:= alw_[0,72] ev_[0,8] (alw_[0,5] (Out2[t]-Out1[t]>=9) => alw_[5,20] (Out5[t]-Out4[t]>= 9))
